0623/stud21_1_top/simulation/qsim/stud21_1_top.msim.vcd
$comment
	File created using the following command:
		vcd file stud21_1_top.msim.vcd -direction
$end
$date
	Wed Jun 23 14:38:04 2021
$end
$version
	ModelSim Version 2020.1
$end
$timescale
	1ps
$end

$scope module stud21_1_top_vlg_vec_tst $end
$var reg 1 ! clk $end
$var reg 4 " kc_sel [3:0] $end
$var reg 1 # rst $end
$var wire 1 $ buf_flag [5] $end
$var wire 1 % buf_flag [4] $end
$var wire 1 & buf_flag [3] $end
$var wire 1 ' buf_flag [2] $end
$var wire 1 ( buf_flag [1] $end
$var wire 1 ) buf_flag [0] $end
$var wire 1 * key_buf_code_1 [23] $end
$var wire 1 + key_buf_code_1 [22] $end
$var wire 1 , key_buf_code_1 [21] $end
$var wire 1 - key_buf_code_1 [20] $end
$var wire 1 . key_buf_code_1 [19] $end
$var wire 1 / key_buf_code_1 [18] $end
$var wire 1 0 key_buf_code_1 [17] $end
$var wire 1 1 key_buf_code_1 [16] $end
$var wire 1 2 key_buf_code_1 [15] $end
$var wire 1 3 key_buf_code_1 [14] $end
$var wire 1 4 key_buf_code_1 [13] $end
$var wire 1 5 key_buf_code_1 [12] $end
$var wire 1 6 key_buf_code_1 [11] $end
$var wire 1 7 key_buf_code_1 [10] $end
$var wire 1 8 key_buf_code_1 [9] $end
$var wire 1 9 key_buf_code_1 [8] $end
$var wire 1 : key_buf_code_1 [7] $end
$var wire 1 ; key_buf_code_1 [6] $end
$var wire 1 < key_buf_code_1 [5] $end
$var wire 1 = key_buf_code_1 [4] $end
$var wire 1 > key_buf_code_1 [3] $end
$var wire 1 ? key_buf_code_1 [2] $end
$var wire 1 @ key_buf_code_1 [1] $end
$var wire 1 A key_buf_code_1 [0] $end
$var wire 1 B kr_sel [3] $end
$var wire 1 C kr_sel [2] $end
$var wire 1 D kr_sel [1] $end
$var wire 1 E kr_sel [0] $end
$var wire 1 F press $end
$var wire 1 G scan_code [3] $end
$var wire 1 H scan_code [2] $end
$var wire 1 I scan_code [1] $end
$var wire 1 J scan_code [0] $end

$scope module i1 $end
$var wire 1 K gnd $end
$var wire 1 L vcc $end
$var wire 1 M unknown $end
$var tri1 1 N devclrn $end
$var tri1 1 O devpor $end
$var tri1 1 P devoe $end
$var wire 1 Q ~QUARTUS_CREATED_GND~I_combout $end
$var wire 1 R ~QUARTUS_CREATED_UNVM~~busy $end
$var wire 1 S ~QUARTUS_CREATED_ADC1~~eoc $end
$var wire 1 T ~QUARTUS_CREATED_ADC2~~eoc $end
$var wire 1 U kr_sel[0]~output_o $end
$var wire 1 V kr_sel[1]~output_o $end
$var wire 1 W kr_sel[2]~output_o $end
$var wire 1 X kr_sel[3]~output_o $end
$var wire 1 Y press~output_o $end
$var wire 1 Z scan_code[0]~output_o $end
$var wire 1 [ scan_code[1]~output_o $end
$var wire 1 \ scan_code[2]~output_o $end
$var wire 1 ] scan_code[3]~output_o $end
$var wire 1 ^ buf_flag[0]~output_o $end
$var wire 1 _ buf_flag[1]~output_o $end
$var wire 1 ` buf_flag[2]~output_o $end
$var wire 1 a buf_flag[3]~output_o $end
$var wire 1 b buf_flag[4]~output_o $end
$var wire 1 c buf_flag[5]~output_o $end
$var wire 1 d key_buf_code_1[0]~output_o $end
$var wire 1 e key_buf_code_1[1]~output_o $end
$var wire 1 f key_buf_code_1[2]~output_o $end
$var wire 1 g key_buf_code_1[3]~output_o $end
$var wire 1 h key_buf_code_1[4]~output_o $end
$var wire 1 i key_buf_code_1[5]~output_o $end
$var wire 1 j key_buf_code_1[6]~output_o $end
$var wire 1 k key_buf_code_1[7]~output_o $end
$var wire 1 l key_buf_code_1[8]~output_o $end
$var wire 1 m key_buf_code_1[9]~output_o $end
$var wire 1 n key_buf_code_1[10]~output_o $end
$var wire 1 o key_buf_code_1[11]~output_o $end
$var wire 1 p key_buf_code_1[12]~output_o $end
$var wire 1 q key_buf_code_1[13]~output_o $end
$var wire 1 r key_buf_code_1[14]~output_o $end
$var wire 1 s key_buf_code_1[15]~output_o $end
$var wire 1 t key_buf_code_1[16]~output_o $end
$var wire 1 u key_buf_code_1[17]~output_o $end
$var wire 1 v key_buf_code_1[18]~output_o $end
$var wire 1 w key_buf_code_1[19]~output_o $end
$var wire 1 x key_buf_code_1[20]~output_o $end
$var wire 1 y key_buf_code_1[21]~output_o $end
$var wire 1 z key_buf_code_1[22]~output_o $end
$var wire 1 { key_buf_code_1[23]~output_o $end
$var wire 1 | clk~input_o $end
$var wire 1 } clk~inputclkctrl_outclk $end
$var wire 1 ~ m1|kr_out[1]~1_combout $end
$var wire 1 !! rst~input_o $end
$var wire 1 "! rst~inputclkctrl_outclk $end
$var wire 1 #! m1|kr_out[0]~0_combout $end
$var wire 1 $! kc_sel[1]~input_o $end
$var wire 1 %! kc_sel[0]~input_o $end
$var wire 1 &! kc_sel[3]~input_o $end
$var wire 1 '! kc_sel[2]~input_o $end
$var wire 1 (! m2|WideOr0~0_combout $end
$var wire 1 )! m2|Mux0~0_combout $end
$var wire 1 *! m2|Mux0~1_combout $end
$var wire 1 +! m2|scan_code~0_combout $end
$var wire 1 ,! m2|Mux4~0_combout $end
$var wire 1 -! m2|scan_code~1_combout $end
$var wire 1 .! m2|Mux3~0_combout $end
$var wire 1 /! m2|Mux2~0_combout $end
$var wire 1 0! m2|Mux2~1_combout $end
$var wire 1 1! m2|Mux1~0_combout $end
$var wire 1 2! m2|Mux1~1_combout $end
$var wire 1 3! m3|buf_flag[0]~feeder_combout $end
$var wire 1 4! m3|buf_flag[1]~feeder_combout $end
$var wire 1 5! m3|buf_flag[2]~feeder_combout $end
$var wire 1 6! m3|buf_flag[3]~feeder_combout $end
$var wire 1 7! m3|buf_flag[4]~feeder_combout $end
$var wire 1 8! m3|buf_flag[5]~feeder_combout $end
$var wire 1 9! m3|key_buf_code[4]~feeder_combout $end
$var wire 1 :! m3|key_buf_code[5]~feeder_combout $end
$var wire 1 ;! m3|key_buf_code[7]~feeder_combout $end
$var wire 1 <! m3|key_buf_code[8]~feeder_combout $end
$var wire 1 =! m3|key_buf_code[9]~feeder_combout $end
$var wire 1 >! m3|key_buf_code[10]~feeder_combout $end
$var wire 1 ?! m3|key_buf_code[11]~feeder_combout $end
$var wire 1 @! m3|key_buf_code[12]~feeder_combout $end
$var wire 1 A! m3|key_buf_code[13]~feeder_combout $end
$var wire 1 B! m3|key_buf_code[14]~feeder_combout $end
$var wire 1 C! m3|key_buf_code[16]~feeder_combout $end
$var wire 1 D! m3|key_buf_code[17]~feeder_combout $end
$var wire 1 E! m3|key_buf_code[18]~feeder_combout $end
$var wire 1 F! m3|key_buf_code[19]~feeder_combout $end
$var wire 1 G! m3|key_buf_code[20]~feeder_combout $end
$var wire 1 H! m3|key_buf_code[21]~feeder_combout $end
$var wire 1 I! m3|key_buf_code[22]~feeder_combout $end
$var wire 1 J! m3|key_buf_code[23]~feeder_combout $end
$var wire 1 K! m1|kr_out [3] $end
$var wire 1 L! m1|kr_out [2] $end
$var wire 1 M! m1|kr_out [1] $end
$var wire 1 N! m1|kr_out [0] $end
$var wire 1 O! m3|buf_flag [5] $end
$var wire 1 P! m3|buf_flag [4] $end
$var wire 1 Q! m3|buf_flag [3] $end
$var wire 1 R! m3|buf_flag [2] $end
$var wire 1 S! m3|buf_flag [1] $end
$var wire 1 T! m3|buf_flag [0] $end
$var wire 1 U! m3|key_buf_code [23] $end
$var wire 1 V! m3|key_buf_code [22] $end
$var wire 1 W! m3|key_buf_code [21] $end
$var wire 1 X! m3|key_buf_code [20] $end
$var wire 1 Y! m3|key_buf_code [19] $end
$var wire 1 Z! m3|key_buf_code [18] $end
$var wire 1 [! m3|key_buf_code [17] $end
$var wire 1 \! m3|key_buf_code [16] $end
$var wire 1 ]! m3|key_buf_code [15] $end
$var wire 1 ^! m3|key_buf_code [14] $end
$var wire 1 _! m3|key_buf_code [13] $end
$var wire 1 `! m3|key_buf_code [12] $end
$var wire 1 a! m3|key_buf_code [11] $end
$var wire 1 b! m3|key_buf_code [10] $end
$var wire 1 c! m3|key_buf_code [9] $end
$var wire 1 d! m3|key_buf_code [8] $end
$var wire 1 e! m3|key_buf_code [7] $end
$var wire 1 f! m3|key_buf_code [6] $end
$var wire 1 g! m3|key_buf_code [5] $end
$var wire 1 h! m3|key_buf_code [4] $end
$var wire 1 i! m3|key_buf_code [3] $end
$var wire 1 j! m3|key_buf_code [2] $end
$var wire 1 k! m3|key_buf_code [1] $end
$var wire 1 l! m3|key_buf_code [0] $end
$upscope $end
$upscope $end
$enddefinitions $end
#0
$dumpvars
0!
b0 "
1#
0)
0(
0'
0&
0%
0$
0A
0@
0?
0>
0=
0<
0;
0:
09
08
07
06
05
04
03
02
01
00
0/
0.
0-
0,
0+
0*
0E
1D
1C
1B
0F
0J
0I
0H
0G
0K
1L
xM
1N
1O
1P
0Q
zR
zS
zT
0U
1V
1W
1X
0Y
0Z
0[
0\
0]
0^
0_
0`
0a
0b
0c
0d
0e
0f
0g
0h
0i
0j
0k
0l
0m
0n
0o
0p
0q
0r
0s
0t
0u
0v
0w
0x
0y
0z
0{
0|
0}
1~
1!!
1"!
1#!
0$!
0%!
0&!
0'!
0(!
1)!
0*!
0+!
0,!
0-!
0.!
0/!
00!
01!
02!
13!
04!
05!
06!
07!
08!
09!
0:!
0;!
0<!
0=!
0>!
0?!
0@!
0A!
0B!
0C!
0D!
0E!
0F!
0G!
0H!
0I!
0J!
0N!
0M!
0L!
0K!
0T!
0S!
0R!
0Q!
0P!
0O!
0l!
0k!
0j!
0i!
0h!
0g!
0f!
0e!
0d!
0c!
0b!
0a!
0`!
0_!
0^!
0]!
0\!
0[!
0Z!
0Y!
0X!
0W!
0V!
0U!
$end
#5000
1!
1|
1}
#10000
0!
0|
0}
#15000
1!
1|
1}
#20000
0#
0!
0|
0!!
0"!
0}
#25000
1!
1|
1}
1M!
1N!
1U
0V
1/!
0D
1E
0~
#30000
0!
0|
0}
#35000
1!
1|
1}
1L!
0M!
1V
0W
11!
0/!
0C
1D
#40000
0!
0|
0}
#45000
1!
1|
1}
1K!
0L!
1W
0X
1/!
0#!
0B
1C
#50000
0!
0|
0}
#55000
1!
1|
1}
0K!
0N!
0U
1X
01!
0/!
1#!
1B
0E
1~
#60000
0!
0|
0}
#65000
1!
1|
1}
1M!
1N!
1U
0V
1/!
0D
1E
0~
#70000
b1000 "
b1100 "
b1110 "
0!
0|
1&!
1'!
1$!
0}
1(!
10!
1*!
1Y
1\
1H
1F
#75000
1!
1|
1}
1L!
0M!
1j!
1T!
1^
1f
1V
0W
11!
0/!
0C
1D
1?
1)
14!
12!
00!
0\
1]
1G
0H
#80000
b110 "
b10 "
b0 "
0!
0|
0&!
0'!
0$!
0}
0(!
02!
0*!
0Y
0]
0G
0F
#85000
1!
1|
1}
1K!
0L!
1W
0X
1/!
0#!
0B
1C
#90000
0!
0|
0}
#95000
1!
1|
1}
0K!
0N!
0U
1X
01!
0/!
1#!
1B
0E
1~
#100000
b1 "
b1001 "
b1101 "
0!
0|
1&!
1'!
1%!
0}
1+!
1(!
1,!
1*!
1Y
1Z
1J
1F
#105000
1!
1|
1}
1M!
1f!
0j!
1l!
1S!
1N!
1U
1_
1d
0f
1j
0V
1/!
0D
1;
0?
1A
1(
1E
1>!
19!
15!
0~
10!
1\
1H
#110000
b1100 "
b100 "
b0 "
0!
0|
0&!
0'!
0%!
0}
0+!
0(!
0,!
00!
0*!
0Y
0\
0Z
0J
0H
0F
#115000
1!
1|
1}
1L!
0M!
1V
0W
11!
0/!
0C
1D
#120000
0!
0|
0}
#125000
1!
1|
1}
1K!
0L!
1W
0X
1/!
0#!
0B
1C
#130000
0!
0|
0}
#135000
1!
1|
1}
0K!
0N!
0U
1X
01!
0/!
1#!
1B
0E
1~
#140000
0!
0|
0}
#145000
1!
1|
1}
1M!
1N!
1U
0V
1/!
0D
1E
0~
#150000
0!
0|
0}
#155000
1!
1|
1}
1L!
0M!
1V
0W
11!
0/!
0C
1D
#160000
b1 "
b1001 "
b1101 "
0!
0|
1&!
1'!
1%!
0}
1+!
1(!
1,!
12!
1*!
1Y
1]
1Z
1J
1G
1F
#165000
1!
1|
1}
1K!
0L!
1b!
0f!
1h!
1i!
1R!
1`
1g
1h
0j
1n
1W
0X
1/!
0#!
0B
1C
17
0;
1=
1>
1'
1B!
0>!
1<!
1;!
16!
10!
1\
1H
#170000
b1100 "
b100 "
b0 "
0!
0|
0&!
0'!
0%!
0}
0+!
0(!
0,!
02!
00!
0*!
0Y
0\
0]
0Z
0J
0G
0H
0F
#175000
1!
1|
1}
0K!
0N!
0U
1X
01!
0/!
1#!
1B
0E
1~
#180000
0!
0|
0}
#185000
1!
1|
1}
1M!
1N!
1U
0V
1/!
0D
1E
0~
#190000
b1 "
b1001 "
b1101 "
0!
0|
1&!
1'!
1%!
0}
1+!
1(!
1,!
10!
1*!
1Y
1\
1Z
1J
1H
1F
#195000
1!
1|
1}
1L!
0M!
1^!
0b!
1d!
1e!
0i!
1j!
1Q!
1a
1f
0g
1k
1l
0n
1r
1V
0W
11!
0/!
0C
1D
13
07
19
1:
0>
1?
1&
1E!
0B!
1@!
1?!
0;!
17!
12!
00!
0\
1]
1G
0H
#200000
b1100 "
b100 "
b0 "
0!
0|
0&!
0'!
0%!
0}
0+!
0(!
0,!
02!
0*!
0Y
0]
0Z
0J
0G
0F
#205000
1!
1|
1}
1K!
0L!
1W
0X
1/!
0#!
0B
1C
#210000
b10 "
b11 "
b111 "
0!
0|
1'!
1$!
1%!
0}
1-!
1+!
1(!
1.!
1,!
12!
10!
1*!
1Y
1\
1]
1Z
1[
1I
1J
1G
1H
1F
#215000
1!
1|
1}
0K!
1Z!
0^!
1`!
1a!
0e!
1f!
1i!
1k!
1P!
0N!
0U
1b
1e
1g
1j
0k
1o
1p
0r
1v
1X
01!
0/!
1#!
1B
1/
03
15
16
0:
1;
1>
1@
1%
0E
1I!
0E!
1C!
0?!
1>!
1;!
1:!
18!
1~
02!
00!
0\
0]
0G
0H
#220000
b101 "
b100 "
b0 "
0!
0|
0'!
0$!
0%!
0}
0-!
0+!
0(!
0.!
0,!
0*!
0Y
0Z
0[
0I
0J
0F
#225000
1!
1|
1}
1M!
1N!
1U
0V
1/!
0D
1E
0~
#230000
0!
0|
0}
#235000
1!
1|
1}
1L!
0M!
1V
0W
11!
0/!
0C
1D
#240000
b1000 "
b1010 "
b1110 "
0!
0|
1&!
1'!
1$!
0}
1(!
12!
1*!
1Y
1]
1G
1F
#245000
1!
1|
1}
1K!
0L!
1V!
0Z!
1\!
1]!
0a!
1b!
1e!
1g!
0j!
0k!
0l!
1O!
1c
0d
0e
0f
1i
1k
1n
0o
1s
1t
0v
1z
1W
0X
1/!
0#!
0B
1C
1+
0/
11
12
06
17
1:
1<
0?
0@
0A
1$
0I!
1G!
1F!
1B!
1?!
1=!
0:!
09!
10!
1\
1H
#250000
b110 "
b100 "
b0 "
0!
0|
0&!
0'!
0$!
0}
0(!
02!
00!
0*!
0Y
0\
0]
0G
0H
0F
#255000
1!
1|
1}
0K!
0N!
0U
1X
01!
0/!
1#!
1B
0E
1~
#260000
0!
0|
0}
#265000
1!
1|
1}
1M!
1N!
1U
0V
1/!
0D
1E
0~
#270000
0!
0|
0}
#275000
1!
1|
1}
1L!
0M!
1V
0W
11!
0/!
0C
1D
#280000
b1 "
b1001 "
b1011 "
0!
0|
1&!
1$!
1%!
0}
1-!
1(!
1.!
12!
1*!
1Y
1]
1[
1I
1G
1F
#285000
1!
1|
1}
1K!
0L!
0V!
1X!
1Y!
0]!
1^!
1a!
1c!
0f!
0g!
0h!
1k!
1e
0h
0i
0j
1m
1o
1r
0s
1w
1x
0z
1W
0X
1/!
0#!
0B
1C
0+
1-
1.
02
13
16
18
0;
0<
0=
1@
1J!
0F!
1E!
1A!
0>!
0=!
0<!
1:!
10!
1\
1H
#290000
b1010 "
b10 "
b0 "
0!
0|
0&!
0$!
0%!
0}
0-!
0(!
0.!
02!
00!
0*!
0Y
0\
0]
0[
0I
0G
0H
0F
#295000
1!
1|
1}
0K!
0N!
0U
1X
01!
0/!
1#!
1B
0E
1~
#300000
0!
0|
0}
#305000
1!
1|
1}
1M!
1N!
1U
0V
1/!
0D
1E
0~
#310000
b1 "
b1001 "
b1011 "
0!
0|
1&!
1$!
1%!
0}
1-!
1(!
1.!
10!
1*!
1Y
1\
1[
1I
1H
1F
#315000
1!
1|
1}
1L!
0M!
1U!
0Y!
1Z!
1]!
1_!
0b!
0c!
0d!
1g!
0i!
1j!
1f
0g
1i
0l
0m
0n
1q
1s
1v
0w
1{
1V
0W
11!
0/!
0C
1D
1*
0.
1/
12
14
07
08
09
1<
0>
1?
0J!
1I!
1F!
1D!
0B!
0A!
0@!
1=!
0;!
12!
00!
0\
1]
1G
0H
#320000
b1010 "
b10 "
b0 "
0!
0|
0&!
0$!
0%!
0}
0-!
0(!
0.!
02!
0*!
0Y
0]
0[
0I
0G
0F
#325000
1!
1|
1}
1K!
0L!
1W
0X
1/!
0#!
0B
1C
#330000
0!
0|
0}
#335000
1!
1|
1}
0K!
0N!
0U
1X
01!
0/!
1#!
1B
0E
1~
#340000
0!
0|
0}
#345000
1!
1|
1}
1M!
1N!
1U
0V
1/!
0D
1E
0~
#350000
b100 "
b101 "
b111 "
0!
0|
1'!
1$!
1%!
0}
1-!
1+!
1(!
1.!
1,!
10!
1*!
1Y
1\
1Z
1[
1I
1J
1H
1F
#355000
1!
1|
1}
1L!
0M!
0U!
1V!
1Y!
1[!
0^!
0_!
0`!
1c!
0e!
1f!
1l!
1d
1j
0k
1m
0p
0q
0r
1u
1w
1z
0{
1V
0W
11!
0/!
0C
1D
0*
1+
1.
10
03
04
05
18
0:
1;
1A
1J!
1H!
0E!
0D!
0C!
1A!
0?!
1>!
19!
12!
00!
0\
1]
1G
0H
#360000
b11 "
b10 "
b0 "
0!
0|
0'!
0$!
0%!
0}
0-!
0+!
0(!
0.!
0,!
02!
0*!
0Y
0]
0Z
0[
0I
0J
0G
0F
#365000
1!
1|
1}
1K!
0L!
1W
0X
1/!
0#!
0B
1C
#370000
0!
0|
0}
#375000
1!
1|
1}
0K!
0N!
0U
1X
01!
0/!
1#!
1B
0E
1~
#380000
b100 "
b101 "
b111 "
0!
0|
1'!
1$!
1%!
0}
1-!
1+!
1(!
1.!
1,!
1*!
1Y
1Z
1[
1I
1J
1F
#385000
1!
1|
1}
1M!
1U!
1W!
0Z!
0[!
0\!
1_!
0a!
1b!
1h!
0j!
1N!
1U
0f
1h
1n
0o
1q
0t
0u
0v
1y
1{
0V
1/!
0D
1*
1,
0/
00
01
14
06
17
1=
0?
1E
0I!
0H!
0G!
1D!
1B!
1<!
0~
10!
1\
1H
#390000
b11 "
b10 "
b0 "
0!
0|
0'!
0$!
0%!
0}
0-!
0+!
0(!
0.!
0,!
00!
0*!
0Y
0\
0Z
0[
0I
0J
0H
0F
#395000
1!
1|
1}
1L!
0M!
1V
0W
11!
0/!
0C
1D
#400000
0!
0|
0}
#405000
1!
1|
1}
1K!
0L!
1W
0X
1/!
0#!
0B
1C
#410000
0!
0|
0}
#415000
1!
1|
1}
0K!
0N!
0U
1X
01!
0/!
1#!
1B
0E
1~
#420000
0!
0|
0}
#425000
1!
1|
1}
1M!
1N!
1U
0V
1/!
0D
1E
0~
#430000
0!
0|
0}
#435000
1!
1|
1}
1L!
0M!
1V
0W
11!
0/!
0C
1D
#440000
0!
0|
0}
#445000
1!
1|
1}
1K!
0L!
1W
0X
1/!
0#!
0B
1C
#450000
0!
0|
0}
#455000
1!
1|
1}
0K!
0N!
0U
1X
01!
0/!
1#!
1B
0E
1~
#460000
0!
0|
0}
#465000
1!
1|
1}
1M!
1N!
1U
0V
1/!
0D
1E
0~
#470000
0!
0|
0}
#475000
1!
1|
1}
1L!
0M!
1V
0W
11!
0/!
0C
1D
#480000
0!
0|
0}
#485000
1!
1|
1}
1K!
0L!
1W
0X
1/!
0#!
0B
1C
#490000
0!
0|
0}
#495000
1!
1|
1}
0K!
0N!
0U
1X
01!
0/!
1#!
1B
0E
1~
#500000
0!
0|
0}
#505000
1!
1|
1}
1M!
1N!
1U
0V
1/!
0D
1E
0~
#510000
0!
0|
0}
#515000
1!
1|
1}
1L!
0M!
1V
0W
11!
0/!
0C
1D
#520000
0!
0|
0}
#525000
1!
1|
1}
1K!
0L!
1W
0X
1/!
0#!
0B
1C
#530000
0!
0|
0}
#535000
1!
1|
1}
0K!
0N!
0U
1X
01!
0/!
1#!
1B
0E
1~
#540000
0!
0|
0}
#545000
1!
1|
1}
1M!
1N!
1U
0V
1/!
0D
1E
0~
#550000
0!
0|
0}
#555000
1!
1|
1}
1L!
0M!
1V
0W
11!
0/!
0C
1D
#560000
0!
0|
0}
#565000
1!
1|
1}
1K!
0L!
1W
0X
1/!
0#!
0B
1C
#570000
0!
0|
0}
#575000
1!
1|
1}
0K!
0N!
0U
1X
01!
0/!
1#!
1B
0E
1~
#580000
0!
0|
0}
#585000
1!
1|
1}
1M!
1N!
1U
0V
1/!
0D
1E
0~
#590000
0!
0|
0}
#595000
1!
1|
1}
1L!
0M!
1V
0W
11!
0/!
0C
1D
