0623/stud21_2_top/simulation/qsim/stud21_2_top.msim.vcd
$comment
	File created using the following command:
		vcd file stud21_2_top.msim.vcd -direction
$end
$date
	Wed Jun 23 16:38:31 2021
$end
$version
	ModelSim Version 2020.1
$end
$timescale
	1ps
$end

$scope module stud21_2_top_vlg_vec_tst $end
$var reg 1 ! clk $end
$var reg 1 " i_RX_Bit_1 $end
$var reg 1 # rst $end
$var wire 1 $ key_buf_code_1 [23] $end
$var wire 1 % key_buf_code_1 [22] $end
$var wire 1 & key_buf_code_1 [21] $end
$var wire 1 ' key_buf_code_1 [20] $end
$var wire 1 ( key_buf_code_1 [19] $end
$var wire 1 ) key_buf_code_1 [18] $end
$var wire 1 * key_buf_code_1 [17] $end
$var wire 1 + key_buf_code_1 [16] $end
$var wire 1 , key_buf_code_1 [15] $end
$var wire 1 - key_buf_code_1 [14] $end
$var wire 1 . key_buf_code_1 [13] $end
$var wire 1 / key_buf_code_1 [12] $end
$var wire 1 0 key_buf_code_1 [11] $end
$var wire 1 1 key_buf_code_1 [10] $end
$var wire 1 2 key_buf_code_1 [9] $end
$var wire 1 3 key_buf_code_1 [8] $end
$var wire 1 4 key_buf_code_1 [7] $end
$var wire 1 5 key_buf_code_1 [6] $end
$var wire 1 6 key_buf_code_1 [5] $end
$var wire 1 7 key_buf_code_1 [4] $end
$var wire 1 8 key_buf_code_1 [3] $end
$var wire 1 9 key_buf_code_1 [2] $end
$var wire 1 : key_buf_code_1 [1] $end
$var wire 1 ; key_buf_code_1 [0] $end
$var wire 1 < o_RX_Byte [3] $end
$var wire 1 = o_RX_Byte [2] $end
$var wire 1 > o_RX_Byte [1] $end
$var wire 1 ? o_RX_Byte [0] $end

$scope module i1 $end
$var wire 1 @ gnd $end
$var wire 1 A vcc $end
$var wire 1 B unknown $end
$var tri1 1 C devclrn $end
$var tri1 1 D devpor $end
$var tri1 1 E devoe $end
$var wire 1 F ~QUARTUS_CREATED_GND~I_combout $end
$var wire 1 G ~QUARTUS_CREATED_UNVM~~busy $end
$var wire 1 H ~QUARTUS_CREATED_ADC1~~eoc $end
$var wire 1 I ~QUARTUS_CREATED_ADC2~~eoc $end
$var wire 1 J o_RX_Byte[0]~output_o $end
$var wire 1 K o_RX_Byte[1]~output_o $end
$var wire 1 L o_RX_Byte[2]~output_o $end
$var wire 1 M o_RX_Byte[3]~output_o $end
$var wire 1 N key_buf_code_1[0]~output_o $end
$var wire 1 O key_buf_code_1[1]~output_o $end
$var wire 1 P key_buf_code_1[2]~output_o $end
$var wire 1 Q key_buf_code_1[3]~output_o $end
$var wire 1 R key_buf_code_1[4]~output_o $end
$var wire 1 S key_buf_code_1[5]~output_o $end
$var wire 1 T key_buf_code_1[6]~output_o $end
$var wire 1 U key_buf_code_1[7]~output_o $end
$var wire 1 V key_buf_code_1[8]~output_o $end
$var wire 1 W key_buf_code_1[9]~output_o $end
$var wire 1 X key_buf_code_1[10]~output_o $end
$var wire 1 Y key_buf_code_1[11]~output_o $end
$var wire 1 Z key_buf_code_1[12]~output_o $end
$var wire 1 [ key_buf_code_1[13]~output_o $end
$var wire 1 \ key_buf_code_1[14]~output_o $end
$var wire 1 ] key_buf_code_1[15]~output_o $end
$var wire 1 ^ key_buf_code_1[16]~output_o $end
$var wire 1 _ key_buf_code_1[17]~output_o $end
$var wire 1 ` key_buf_code_1[18]~output_o $end
$var wire 1 a key_buf_code_1[19]~output_o $end
$var wire 1 b key_buf_code_1[20]~output_o $end
$var wire 1 c key_buf_code_1[21]~output_o $end
$var wire 1 d key_buf_code_1[22]~output_o $end
$var wire 1 e key_buf_code_1[23]~output_o $end
$var wire 1 f clk~input_o $end
$var wire 1 g clk~inputclkctrl_outclk $end
$var wire 1 h i_RX_Bit_1~input_o $end
$var wire 1 i Selector4~0_combout $end
$var wire 1 j Selector4~1_combout $end
$var wire 1 k rst~input_o $end
$var wire 1 l rst~inputclkctrl_outclk $end
$var wire 1 m r_SM_Main.RX_DATA_ST~q $end
$var wire 1 n r_SM_Main~7_combout $end
$var wire 1 o r_SM_Main.RX_STOP_ST~q $end
$var wire 1 p Selector3~0_combout $end
$var wire 1 q r_SM_Main.RX_START_ST~q $end
$var wire 1 r Selector1~1_combout $end
$var wire 1 s Selector2~0_combout $end
$var wire 1 t r_RX_Byte[0]~0_combout $end
$var wire 1 u r_RX_Byte[0]~1_combout $end
$var wire 1 v Selector1~0_combout $end
$var wire 1 w r_RX_Byte[1]~2_combout $end
$var wire 1 x r_RX_Byte[2]~3_combout $end
$var wire 1 y r_RX_Byte[2]~4_combout $end
$var wire 1 z r_RX_Byte[3]~5_combout $end
$var wire 1 { key_buf_code_1[0]~reg0feeder_combout $end
$var wire 1 | key_buf_code_1[0]~0_combout $end
$var wire 1 } key_buf_code_1[0]~reg0_q $end
$var wire 1 ~ key_buf_code_1[1]~reg0_q $end
$var wire 1 !! key_buf_code_1[2]~reg0_q $end
$var wire 1 "! key_buf_code_1[3]~reg0feeder_combout $end
$var wire 1 #! key_buf_code_1[3]~reg0_q $end
$var wire 1 $! key_buf_code_1[4]~reg0feeder_combout $end
$var wire 1 %! key_buf_code_1[4]~reg0_q $end
$var wire 1 &! key_buf_code_1[5]~reg0feeder_combout $end
$var wire 1 '! key_buf_code_1[5]~reg0_q $end
$var wire 1 (! key_buf_code_1[6]~reg0feeder_combout $end
$var wire 1 )! key_buf_code_1[6]~reg0_q $end
$var wire 1 *! key_buf_code_1[7]~reg0feeder_combout $end
$var wire 1 +! key_buf_code_1[7]~reg0_q $end
$var wire 1 ,! key_buf_code_1[8]~reg0feeder_combout $end
$var wire 1 -! key_buf_code_1[8]~reg0_q $end
$var wire 1 .! key_buf_code_1[9]~reg0feeder_combout $end
$var wire 1 /! key_buf_code_1[9]~reg0_q $end
$var wire 1 0! key_buf_code_1[10]~reg0feeder_combout $end
$var wire 1 1! key_buf_code_1[10]~reg0_q $end
$var wire 1 2! key_buf_code_1[11]~reg0feeder_combout $end
$var wire 1 3! key_buf_code_1[11]~reg0_q $end
$var wire 1 4! key_buf_code_1[12]~reg0feeder_combout $end
$var wire 1 5! key_buf_code_1[12]~reg0_q $end
$var wire 1 6! key_buf_code_1[13]~reg0feeder_combout $end
$var wire 1 7! key_buf_code_1[13]~reg0_q $end
$var wire 1 8! key_buf_code_1[14]~reg0feeder_combout $end
$var wire 1 9! key_buf_code_1[14]~reg0_q $end
$var wire 1 :! key_buf_code_1[15]~reg0feeder_combout $end
$var wire 1 ;! key_buf_code_1[15]~reg0_q $end
$var wire 1 <! key_buf_code_1[16]~reg0feeder_combout $end
$var wire 1 =! key_buf_code_1[16]~reg0_q $end
$var wire 1 >! key_buf_code_1[17]~reg0feeder_combout $end
$var wire 1 ?! key_buf_code_1[17]~reg0_q $end
$var wire 1 @! key_buf_code_1[18]~reg0_q $end
$var wire 1 A! key_buf_code_1[19]~reg0feeder_combout $end
$var wire 1 B! key_buf_code_1[19]~reg0_q $end
$var wire 1 C! key_buf_code_1[20]~reg0feeder_combout $end
$var wire 1 D! key_buf_code_1[20]~reg0_q $end
$var wire 1 E! key_buf_code_1[21]~reg0feeder_combout $end
$var wire 1 F! key_buf_code_1[21]~reg0_q $end
$var wire 1 G! key_buf_code_1[22]~reg0_q $end
$var wire 1 H! key_buf_code_1[23]~reg0feeder_combout $end
$var wire 1 I! key_buf_code_1[23]~reg0_q $end
$var wire 1 J! r_RX_Byte [3] $end
$var wire 1 K! r_RX_Byte [2] $end
$var wire 1 L! r_RX_Byte [1] $end
$var wire 1 M! r_RX_Byte [0] $end
$var wire 1 N! r_Byte_Idx [2] $end
$var wire 1 O! r_Byte_Idx [1] $end
$var wire 1 P! r_Byte_Idx [0] $end
$upscope $end
$upscope $end
$enddefinitions $end
#0
$dumpvars
0!
1"
1#
0;
0:
09
08
07
06
05
04
03
02
01
00
0/
0.
0-
0,
0+
0*
0)
0(
0'
0&
0%
0$
0?
0>
0=
0<
0@
1A
xB
1C
1D
1E
0F
zG
zH
zI
0J
0K
0L
0M
0N
0O
0P
0Q
0R
0S
0T
0U
0V
0W
0X
0Y
0Z
0[
0\
0]
0^
0_
0`
0a
0b
0c
0d
0e
0f
0g
1h
0i
0j
1k
1l
0m
0n
0o
0p
0q
0r
0s
0t
0u
0v
0w
0x
0y
0z
0{
0|
0}
0~
0!!
0"!
0#!
0$!
0%!
0&!
0'!
0(!
0)!
0*!
0+!
0,!
0-!
0.!
0/!
00!
01!
02!
03!
04!
05!
06!
07!
08!
09!
0:!
0;!
0<!
0=!
0>!
0?!
0@!
0A!
0B!
0C!
0D!
0E!
0F!
0G!
0H!
0I!
0M!
0L!
0K!
0J!
0P!
0O!
zN!
$end
#5000
1!
1f
1g
#10000
0!
0f
0g
#15000
1!
1f
1g
#20000
0#
0!
0f
0k
0l
0g
#25000
1!
1f
1g
#30000
0"
0!
0f
0h
0g
1p
1j
#35000
1!
1f
1g
1q
1m
1t
1i
0j
1s
1j
#40000
0!
0f
0g
#45000
1!
1f
1g
1P!
1v
0s
1r
#50000
0!
0f
0g
#55000
1!
1f
1g
0P!
1O!
0v
1x
0t
1s
#60000
1"
0!
0f
1h
0g
1y
#65000
1!
1f
1g
1P!
1K!
1L
1v
0i
1=
1n
1z
0j
#70000
0"
0!
0f
0h
0g
0z
#75000
1!
1f
1g
1o
0m
1|
0x
0v
0p
0n
#80000
1"
0!
0f
1h
0g
#85000
1!
1f
1g
0q
0o
1!!
1P
0|
19
0r
0s
1(!
#90000
0"
0!
0f
0h
0g
1p
1j
#95000
1!
1f
1g
0P!
0O!
1q
1m
1i
1t
1s
0j
1j
#100000
1"
0!
0f
1h
0g
1u
#105000
1!
1f
1g
1P!
1M!
1J
1v
1?
0s
1r
1{
1w
#110000
0"
0!
0f
0h
0g
0w
#115000
1!
1f
1g
0P!
1O!
0v
1x
0t
0u
1s
0y
1u
#120000
0!
0f
0g
#125000
1!
1f
1g
1P!
0K!
0L
1v
0i
0=
1n
0j
#130000
0!
0f
0g
#135000
1!
1f
1g
1o
0m
1|
0x
0v
0p
0n
#140000
1"
0!
0f
1h
0g
#145000
1!
1f
1g
0q
0o
1)!
0!!
1}
1N
0P
1T
0|
15
09
1;
0r
0s
10!
0(!
1$!
#150000
0"
0!
0f
0h
0g
1p
1j
#155000
1!
1f
1g
0P!
0O!
1q
1m
1i
1t
1s
0j
1j
0u
#160000
1"
0!
0f
1h
0g
1u
#165000
1!
1f
1g
1P!
1v
0s
1r
1w
#170000
0"
0!
0f
0h
0g
0w
#175000
1!
1f
1g
0P!
1O!
0v
1x
0t
0u
1s
1u
#180000
0!
0f
0g
#185000
1!
1f
1g
1P!
1v
0i
1n
0j
#190000
1"
0!
0f
1h
0g
1z
#195000
1!
1f
1g
1o
0m
1J!
1M
1|
0x
0v
1<
0p
0n
1"!
#200000
0!
0f
0g
#205000
1!
1f
1g
0q
0o
11!
0)!
1%!
1#!
1Q
1R
0T
1X
0|
11
05
17
18
0r
0s
18!
00!
1,!
1*!
#210000
0"
0!
0f
0h
0g
1p
1j
#215000
1!
1f
1g
0P!
0O!
1q
1m
1i
1t
1s
0j
1j
0u
#220000
1"
0!
0f
1h
0g
1u
#225000
1!
1f
1g
1P!
1v
0s
1r
1w
#230000
0"
0!
0f
0h
0g
0w
#235000
1!
1f
1g
0P!
1O!
0v
1x
0t
0u
1s
0z
1z
1u
#240000
1"
0!
0f
1h
0g
1y
#245000
1!
1f
1g
1P!
1K!
1L
1v
0i
1=
1n
0j
#250000
0"
0!
0f
0h
0g
0z
#255000
1!
1f
1g
1o
0m
0J!
0M
1|
0x
0v
0<
0p
0n
0"!
#260000
1"
0!
0f
1h
0g
#265000
1!
1f
1g
0q
0o
19!
01!
1-!
1+!
0#!
1!!
1P
0Q
1U
1V
0X
1\
0|
1-
01
13
14
08
19
0r
0s
08!
14!
12!
0*!
1(!
#270000
0"
0!
0f
0h
0g
1p
1j
#275000
1!
1f
1g
0P!
0O!
1q
1m
1i
1t
1s
0j
1j
0u
#280000
1"
0!
0f
1h
0g
1u
#285000
1!
1f
1g
1P!
1v
0s
1r
1w
#290000
0!
0f
0g
#295000
1!
1f
1g
0P!
1O!
1L!
1K
0v
1x
0t
1>
1s
1z
0z
#300000
0!
0f
0g
#305000
1!
1f
1g
1P!
1v
0i
1n
1z
0j
#310000
0!
0f
0g
#315000
1!
1f
1g
1o
0m
1J!
1M
1|
0x
0v
1<
0p
0n
1"!
#320000
0!
0f
0g
#325000
1!
1f
1g
0q
0o
1@!
09!
15!
13!
0+!
1)!
1#!
1~
1O
1Q
1T
0U
1Y
1Z
0\
1`
0|
1)
0-
1/
10
04
15
18
1:
0r
0s
1<!
1:!
02!
10!
1*!
1&!
#330000
0"
0!
0f
0h
0g
1p
1j
#335000
1!
1f
1g
0P!
0O!
1q
1m
1i
1t
1s
0j
1j
0u
#340000
0!
0f
0g
#345000
1!
1f
1g
1P!
0M!
0J
1v
0?
0s
1r
0{
0w
#350000
0!
0f
0g
#355000
1!
1f
1g
0P!
1O!
0L!
0K
0v
1x
0t
0>
1s
0z
1z
0y
#360000
0!
0f
0g
#365000
1!
1f
1g
1P!
0K!
0L
1v
0i
0=
1n
0z
0j
#370000
1"
0!
0f
1h
0g
1z
#375000
1!
1f
1g
1o
0m
1|
0x
0v
0p
0n
#380000
0!
0f
0g
#385000
1!
1f
1g
0q
0o
1G!
0@!
1=!
1;!
03!
11!
1+!
1'!
0!!
0~
0}
0N
0O
0P
1S
1U
1X
0Y
1]
1^
0`
1d
0|
1%
0)
1+
1,
00
11
14
16
09
0:
0;
0r
0s
1C!
1A!
0:!
18!
12!
1.!
0(!
0&!
0$!
#390000
0"
0!
0f
0h
0g
1p
1j
#395000
1!
1f
1g
0P!
0O!
1q
1m
1i
1t
1s
0j
1j
#400000
0!
0f
0g
#405000
1!
1f
1g
1P!
1v
0s
1r
#410000
1"
0!
0f
1h
0g
1w
#415000
1!
1f
1g
0P!
1O!
1L!
1K
0v
1x
0t
1>
1u
1s
1y
0u
#420000
0"
0!
0f
0h
0g
0y
#425000
1!
1f
1g
1P!
1v
0i
1n
0z
0j
#430000
1"
0!
0f
1h
0g
1z
#435000
1!
1f
1g
1o
0m
1|
0x
0v
0p
0n
#440000
0!
0f
0g
#445000
1!
1f
1g
0q
0o
0G!
1D!
1B!
0;!
19!
13!
1/!
0)!
0'!
0%!
1~
1O
0R
0S
0T
1W
1Y
1\
0]
1a
1b
0d
0|
0%
1'
1(
0,
1-
10
12
05
06
07
1:
0r
0s
1H!
0A!
1:!
16!
00!
0.!
0,!
1&!
#450000
0"
0!
0f
0h
0g
1p
1j
#455000
1!
1f
1g
0P!
0O!
1q
1m
1i
1t
1s
0j
1j
#460000
0!
0f
0g
#465000
1!
1f
1g
1P!
1v
0s
1r
0w
#470000
1"
0!
0f
1h
0g
1w
#475000
1!
1f
1g
0P!
1O!
0v
1x
0t
1u
1s
1y
0u
#480000
0!
0f
0g
#485000
1!
1f
1g
1P!
1K!
1L
1v
0i
1=
1n
0j
#490000
0"
0!
0f
0h
0g
0z
#495000
1!
1f
1g
1o
0m
0J!
0M
1|
0x
0v
0<
0p
0n
0"!
#500000
1"
0!
0f
1h
0g
#505000
1!
1f
1g
0q
0o
1I!
0B!
1@!
1;!
17!
01!
0/!
0-!
1'!
0#!
1!!
1P
0Q
1S
0V
0W
0X
1[
1]
1`
0a
1e
0|
1$
0(
1)
1,
1.
01
02
03
16
08
19
0r
0s
0H!
1A!
1>!
08!
06!
04!
1.!
0*!
1(!
#510000
0"
0!
0f
0h
0g
1p
1j
#515000
1!
1f
1g
0P!
0O!
1q
1m
1i
1t
1s
0j
1j
#520000
1"
0!
0f
1h
0g
1u
#525000
1!
1f
1g
1P!
1M!
1J
1v
1?
0s
1r
1{
#530000
0!
0f
0g
#535000
1!
1f
1g
0P!
1O!
0v
1x
0t
1s
1z
0z
#540000
0!
0f
0g
#545000
1!
1f
1g
1P!
1v
0i
1n
1z
0j
#550000
0"
0!
0f
0h
0g
0z
#555000
1!
1f
1g
1o
0m
1|
0x
0v
0p
0n
#560000
1"
0!
0f
1h
0g
#565000
1!
1f
1g
0q
0o
0I!
1G!
1B!
1?!
09!
07!
05!
1/!
0+!
1)!
1}
1N
1T
0U
1W
0Z
0[
0\
1_
1a
1d
0e
0|
0$
1%
1(
1*
0-
0.
0/
12
04
15
1;
0r
0s
1H!
1E!
0>!
0<!
16!
02!
10!
1$!
#570000
0"
0!
0f
0h
0g
1p
1j
#575000
1!
1f
1g
0P!
0O!
1q
1m
1i
1t
1s
0j
1j
0u
#580000
1"
0!
0f
1h
0g
1u
#585000
1!
1f
1g
1P!
1v
0s
1r
#590000
0!
0f
0g
#595000
1!
1f
1g
0P!
1O!
0v
1x
0t
1s
1z
0z
#600000
0"
0!
0f
0h
0g
0y
#605000
1!
1f
1g
1P!
0K!
0L
1v
0i
0=
1n
0j
#610000
0!
0f
0g
#615000
1!
1f
1g
1o
0m
1|
0x
0v
0p
0n
#620000
1"
0!
0f
1h
0g
#625000
1!
1f
1g
0q
0o
1I!
1F!
0@!
0?!
0=!
17!
03!
11!
1%!
0!!
0P
1R
1X
0Y
1[
0^
0_
0`
1c
1e
0|
1$
1&
0)
0*
0+
1.
00
11
17
09
0r
0s
0E!
0C!
1>!
0:!
18!
1,!
0(!
#630000
0!
0f
0g
#635000
1!
1f
1g
0P!
0O!
#640000
0!
0f
0g
#645000
1!
1f
1g
#650000
0!
0f
0g
#655000
1!
1f
1g
#660000
0!
0f
0g
#665000
1!
1f
1g
#670000
0!
0f
0g
#675000
1!
1f
1g
#680000
0!
0f
0g
#685000
1!
1f
1g
#690000
0!
0f
0g
#695000
1!
1f
1g
